%YAML 1.1
%TAG !u! tag:unity3d.com,2011:
--- !u!21 &2100000
Material:
  serializedVersion: 6
  m_ObjectHideFlags: 0
  m_CorrespondingSourceObject: {fileID: 0}
  m_PrefabInternal: {fileID: 0}
  m_Name: Custom_MyToonLitShader
  m_Shader: {fileID: 4800000, guid: a2a314b66da479c4dbe4214a279e817a, type: 3}
  m_ShaderKeywords: 
  m_LightmapFlags: 4
  m_EnableInstancingVariants: 0
  m_DoubleSidedGI: 0
  m_CustomRenderQueue: -1
  stringTagMap: {}
  disabledShaderPasses: []
  m_SavedProperties:
    serializedVersion: 3
    m_TexEnvs:
    - _node_9629:
        m_Texture: {fileID: 0}
        m_Scale: {x: 1, y: 1}
        m_Offset: {x: 0, y: 0}
    m_Floats:
    - _EmissionValue: 0
    - _OutlineWidth: 0
    - _ShadowDarkness: 0
    - _Tones: 6.03
    m_Colors:
    - _BaseColor: {r: 0.047169805, g: 0.047169805, b: 0.047169805, a: 1}
    - _OutlineColor: {r: 0.5, g: 0.5, b: 0.5, a: 1}
